Asking Questions from Survey Data
…
survey_data_wide |>
  count(age)

In addition to looking at single variables with the
count() function, we can also generate quick summary tables
across multiple variables by separating them with commas
,:

What is the sample breakdown of age and gender?

survey_data_wide |>
  count(age, gender)

## # A tibble: 24 × 3
##      age gender               n
##    <dbl> <chr>            <int>
##  1    18 Female              31
##  2    18 Male                34
##  3    18 Non-binary/Other     3
##  4    19 Female              25
##  5    19 Male                24
##  6    19 Non-binary/Other     6
##  7    20 Female              28
##  8    20 Male                17
##  9    20 Non-binary/Other     3
## 10    21 Female              12
## # ℹ 14 more rows
…
